Women in Geo Legacy Project
…
merged_data <- merged_data %>% rename(life_expectancy = period_life_expectancy_at_birth_sex_all_age_0,
                                      gdp = gdp_per_capita_output_multiple_price_benchmarks)

# Data cleaning
merged_data <- na.omit(merged_data)

correlation_by_country <- merged_data %>%
  group_by(entity) %>%
  summarize(correlation = cor(gdp, life_expectancy))

print(correlation_by_country)

# A tibble: 182 × 2
   entity              correlation
   <chr>                     <dbl>
 1 Albania                   0.837
 2 Algeria                   0.591
 3 Angola                    0.806
 4 Anguilla                  0.706
 5 Antigua and Barbuda       0.785
 6 Argentina                 0.931
 7 Armenia                   0.962
 8 Aruba                     0.663
 9 Australia                 0.981
10 Austria                   0.983
# ℹ 172 more rows
…
